## Interface: 11200
## Title: |cff33ffccShagu|cffffffffBam Tweaked
## Author: Shagu, 2016 | Sykst, 2018
## Notes: Bammod | Tweaked by Sykst
## Version: 1.1
## SavedVariables: ShaguBamSettings, ShaguBamRecord

# main
ShaguBamTweaked.lua
